{
  "hosting": {
    "redirects": [
      {
        "source": "/public/index.html",
        "destination": "/email",
        "type": 301
      },
      {
        "source": "/public/index.html",
        "destination": "/email",
        "type": 302
      }
    ],
    "public": "public",
    "ignore": [
      "firebase.json",
      "**/.*",
      "**/node_modules/**"
    ]
  }
}
